^C:\USERS\PAVEL\DOCUMENTS\COURSES\4151 - ADVANCED .NET WITH C#\LABS\MODULE 7 - MULTITHREADING\BACKGROUNDPRIMECALC\PROPERTIES\RESOURCES.RESX
C:\WINDOWS\MICROSOFT.NET\FRAMEWORK64\V2.0.50727\CONFIG\SECURITY.CONFIG
C:\WINDOWS\MICROSOFT.NET\FRAMEWORK64\V2.0.50727\CONFIG\ENTERPRISESEC.CONFIG
^C:\USERS\PAVEL\DOCUMENTS\COURSES\4151 - ADVANCED .NET WITH C#\LABS\MODULE 7 - MULTITHREADING\BACKGROUNDPRIMECALC\MAINFORM.RESX
